…
# Join the 3 datasets 
full_dt = pols |> 
  left_join(snp, by = c("year", "month")) |> 
  left_join(unemployment, by = c("year", "month"))

full_dt
```

    ## # A tibble: 822 × 11
    ##     year month   president gov_gop sen_gop rep_gop gov_dem sen_dem rep_dem close
    ##    <dbl> <ord>   <chr>       <dbl>   <dbl>   <dbl>   <dbl>   <dbl>   <dbl> <dbl>
    ##  1  1947 January dem            23      51     253      23      45     198    NA
    ##  2  1947 Februa… dem            23      51     253      23      45     198    NA
    ##  3  1947 March   dem            23      51     253      23      45     198    NA
    ##  4  1947 April   dem            23      51     253      23      45     198    NA
    ##  5  1947 May     dem            23      51     253      23      45     198    NA
    ##  6  1947 June    dem            23      51     253      23      45     198    NA
    ##  7  1947 July    dem            23      51     253      23      45     198    NA
    ##  8  1947 August  dem            23      51     253      23      45     198    NA
    ##  9  1947 Septem… dem            23      51     253      23      45     198    NA
    ## 10  1947 October dem            23      51     253      23      45     198    NA
    ## # ℹ 812 more rows
    ## # ℹ 1 more variable: ue_rate <dbl>
…
# Combine these datasets
three_trash_wheel = bind_rows(mr_trash, prof_trash, gwynns_trash)

three_trash_wheel
```

    ## # A tibble: 1,188 × 15
    ##    wheel_name      dumpster month  year date                weight_tons
    ##    <chr>              <dbl> <chr> <dbl> <dttm>                    <dbl>
    ##  1 Mr. Trash Wheel        1 May    2014 2014-05-16 00:00:00        4.31
    ##  2 Mr. Trash Wheel        2 May    2014 2014-05-16 00:00:00        2.74
    ##  3 Mr. Trash Wheel        3 May    2014 2014-05-16 00:00:00        3.45
    ##  4 Mr. Trash Wheel        4 May    2014 2014-05-17 00:00:00        3.1 
    ##  5 Mr. Trash Wheel        5 May    2014 2014-05-17 00:00:00        4.06
    ##  6 Mr. Trash Wheel        6 May    2014 2014-05-20 00:00:00        2.71
    ##  7 Mr. Trash Wheel        7 May    2014 2014-05-21 00:00:00        1.91
    ##  8 Mr. Trash Wheel        8 May    2014 2014-05-28 00:00:00        3.7 
    ##  9 Mr. Trash Wheel        9 June   2014 2014-06-05 00:00:00        2.52
    ## 10 Mr. Trash Wheel       10 June   2014 2014-06-11 00:00:00        3.76
    ## # ℹ 1,178 more rows
    ## # ℹ 9 more variables: volume_cubic_yards <dbl>, plastic_bottles <dbl>,
    ## #   polystyrene <dbl>, cigarette_butts <dbl>, glass_bottles <dbl>,
    ## #   plastic_bags <dbl>, wrappers <dbl>, sports_balls <int>, homes_powered <dbl>
…
# Merge two datasets and tidy
full_rent = rent |> 
  left_join(zip, by = c("zip_code", "county")) |> 
  select(region_id, size_rank, region_type, zip_code, zip_file_date, state_name, state, state_fips, city, metro, county, county_code, county_fips, neighborhood, everything()) |> 
  arrange()

full_rent
```

    ## # A tibble: 10,450 × 19
    ##    region_id size_rank region_type zip_code zip_file_date state_name state
    ##        <dbl>     <dbl> <chr>          <dbl> <date>        <chr>      <chr>
    ##  1     62080         4 zip            11368 2007-07-25    NY         NY   
    ##  2     62080         4 zip            11368 2007-07-25    NY         NY   
    ##  3     62093         7 zip            11385 2007-07-25    NY         NY   
    ##  4     62093         7 zip            11385 2007-07-25    NY         NY   
    ##  5     62093         7 zip            11385 2007-07-25    NY         NY   
    ##  6     62093         7 zip            11385 2007-07-25    NY         NY   
    ##  7     62093         7 zip            11385 2007-07-25    NY         NY   
    ##  8     62093         7 zip            11385 2007-07-25    NY         NY   
    ##  9     62093         7 zip            11385 2007-07-25    NY         NY   
    ## 10     62093         7 zip            11385 2007-07-25    NY         NY   
    ## # ℹ 10,440 more rows
    ## # ℹ 12 more variables: state_fips <dbl>, city <chr>, metro <chr>, county <chr>,
    ## #   county_code <chr>, county_fips <dbl>, neighborhood <chr>, rent_date <date>,
    ## #   rent_year <int>, rent_month <int>, rent_day <int>, rent_price <dbl>
…
